{
    "name": "ESPUnify",
    "keywords": "iot",
    "description": "A wrapper to unify the ESP8266 and ESP32 SDK",
    "repository": {
        "type": "git",
        "url": "https://gitlab.com/painlessMesh/ESPUnify"
    },
    "version": "0.1.0",
    "frameworks": "arduino",
    "platforms": "espressif8266, espressif32",
    "authors": [
        { "name": "Edwin van Leeuwen" }
    ]
}
